%YAML 1.1
%TAG !u! tag:unity3d.com,2011:
--- !u!1 &5131454316207203684
GameObject:
  m_ObjectHideFlags: 0
  m_CorrespondingSourceObject: {fileID: 0}
  m_PrefabInstance: {fileID: 0}
  m_PrefabAsset: {fileID: 0}
  serializedVersion: 6
  m_Component:
  - component: {fileID: 6224721577263510804}
  - component: {fileID: 1581104084277224918}
  - component: {fileID: 7194736155556276112}
  m_Layer: 31
  m_Name: Layer1
  m_TagString: Untagged
  m_Icon: {fileID: 0}
  m_NavMeshLayer: 0
  m_StaticEditorFlags: 0
  m_IsActive: 1
--- !u!4 &6224721577263510804
Transform:
  m_ObjectHideFlags: 0
  m_CorrespondingSourceObject: {fileID: 0}
  m_PrefabInstance: {fileID: 0}
  m_PrefabAsset: {fileID: 0}
  m_GameObject: {fileID: 5131454316207203684}
  m_LocalRotation: {x: -0, y: -0, z: -0, w: 1}
  m_LocalPosition: {x: 0, y: 0, z: 0}
  m_LocalScale: {x: 1, y: 1, z: 1}
  m_Children: []
  m_Father: {fileID: 792421626492247285}
  m_RootOrder: 0
  m_LocalEulerAnglesHint: {x: 0, y: 0, z: 0}
--- !u!1839735485 &1581104084277224918
Tilemap:
  m_ObjectHideFlags: 0
  m_CorrespondingSourceObject: {fileID: 0}
  m_PrefabInstance: {fileID: 0}
  m_PrefabAsset: {fileID: 0}
  m_GameObject: {fileID: 5131454316207203684}
  m_Enabled: 1
  m_Tiles:
  - first: {x: -1, y: -10, z: 0}
    second:
      serializedVersion: 2
      m_TileIndex: 132
      m_TileSpriteIndex: 132
      m_TileMatrixIndex: 0
      m_TileColorIndex: 0
      m_TileObjectToInstantiateIndex: 65535
      dummyAlignment: 0
      m_AllTileFlags: 1073741825
  - first: {x: 0, y: -10, z: 0}
    second:
      serializedVersion: 2
      m_TileIndex: 133
      m_TileSpriteIndex: 133
      m_TileMatrixIndex: 0
      m_TileColorIndex: 0
      m_TileObjectToInstantiateIndex: 65535
      dummyAlignment: 0
      m_AllTileFlags: 1073741825
  - first: {x: 1, y: -10, z: 0}
    second:
      serializedVersion: 2
      m_TileIndex: 134
      m_TileSpriteIndex: 134
      m_TileMatrixIndex: 0
      m_TileColorIndex: 0
      m_TileObjectToInstantiateIndex: 65535
      dummyAlignment: 0
      m_AllTileFlags: 1073741825
  - first: {x: 5, y: -10, z: 0}
    second:
      serializedVersion: 2
      m_TileIndex: 135
      m_TileSpriteIndex: 135
      m_TileMatrixIndex: 0
      m_TileColorIndex: 0
      m_TileObjectToInstantiateIndex: 65535
      dummyAlignment: 0
      m_AllTileFlags: 1073741825
  - first: {x: 6, y: -10, z: 0}
    second:
      serializedVersion: 2
      m_TileIndex: 136
      m_TileSpriteIndex: 136
      m_TileMatrixIndex: 0
      m_TileColorIndex: 0
      m_TileObjectToInstantiateIndex: 65535
      dummyAlignment: 0
      m_AllTileFlags: 1073741825
  - first: {x: 7, y: -10, z: 0}
    second:
      serializedVersion: 2
      m_TileIndex: 137
      m_TileSpriteIndex: 137
      m_TileMatrixIndex: 0
      m_TileColorIndex: 0
      m_TileObjectToInstantiateIndex: 65535
      dummyAlignment: 0
      m_AllTileFlags: 1073741825
  - first: {x: 12, y: -10, z: 0}
    second:
      serializedVersion: 2
      m_TileIndex: 138
      m_TileSpriteIndex: 138
      m_TileMatrixIndex: 0
      m_TileColorIndex: 0
      m_TileObjectToInstantiateIndex: 65535
      dummyAlignment: 0
      m_AllTileFlags: 1073741825
  - first: {x: 13, y: -10, z: 0}
    second:
      serializedVersion: 2
      m_TileIndex: 139
      m_TileSpriteIndex: 139
      m_TileMatrixIndex: 0
      m_TileColorIndex: 0
      m_TileObjectToInstantiateIndex: 65535
      dummyAlignment: 0
      m_AllTileFlags: 1073741825
  - first: {x: 14, y: -10, z: 0}
    second:
      serializedVersion: 2
      m_TileIndex: 140
      m_TileSpriteIndex: 140
      m_TileMatrixIndex: 0
      m_TileColorIndex: 0
      m_TileObjectToInstantiateIndex: 65535
      dummyAlignment: 0
      m_AllTileFlags: 1073741825
  - first: {x: 17, y: -10, z: 0}
    second:
      serializedVersion: 2
      m_TileIndex: 141
      m_TileSpriteIndex: 141
      m_TileMatrixIndex: 0
      m_TileColorIndex: 0
      m_TileObjectToInstantiateIndex: 65535
      dummyAlignment: 0
      m_AllTileFlags: 1073741825
  - first: {x: 18, y: -10, z: 0}
    second:
      serializedVersion: 2
      m_TileIndex: 142
      m_TileSpriteIndex: 142
      m_TileMatrixIndex: 0
      m_TileColorIndex: 0
      m_TileObjectToInstantiateIndex: 65535
      dummyAlignment: 0
      m_AllTileFlags: 1073741825
  - first: {x: 19, y: -10, z: 0}
    second:
      serializedVersion: 2
      m_TileIndex: 143
      m_TileSpriteIndex: 143
      m_TileMatrixIndex: 0
      m_TileColorIndex: 0
      m_TileObjectToInstantiateIndex: 65535
      dummyAlignment: 0
      m_AllTileFlags: 1073741825
  - first: {x: -1, y: -9, z: 0}
    second:
      serializedVersion: 2
      m_TileIndex: 114
      m_TileSpriteIndex: 114
      m_TileMatrixIndex: 0
      m_TileColorIndex: 0
      m_TileObjectToInstantiateIndex: 65535
      dummyAlignment: 0
      m_AllTileFlags: 1073741825
  - first: {x: 0, y: -9, z: 0}
    second:
      serializedVersion: 2
      m_TileIndex: 115
      m_TileSpriteIndex: 115
      m_TileMatrixIndex: 0
      m_TileColorIndex: 0
      m_TileObjectToInstantiateIndex: 65535
      dummyAlignment: 0
      m_AllTileFlags: 1073741825
  - first: {x: 1, y: -9, z: 0}
    second:
      serializedVersion: 2
      m_TileIndex: 116
      m_TileSpriteIndex: 116
      m_TileMatrixIndex: 0
      m_TileColorIndex: 0
      m_TileObjectToInstantiateIndex: 65535
      dummyAlignment: 0
      m_AllTileFlags: 1073741825
  - first: {x: 2, y: -9, z: 0}
    second:
      serializedVersion: 2
      m_TileIndex: 117
      m_TileSpriteIndex: 117
      m_TileMatrixIndex: 0
      m_TileColorIndex: 0
      m_TileObjectToInstantiateIndex: 65535
      dummyAlignment: 0
      m_AllTileFlags: 1073741825
  - first: {x: 3, y: -9, z: 0}
    second:
      serializedVersion: 2
      m_TileIndex: 118
      m_TileSpriteIndex: 118
      m_TileMatrixIndex: 0
      m_TileColorIndex: 0
      m_TileObjectToInstantiateIndex: 65535
      dummyAlignment: 0
      m_AllTileFlags: 1073741825
  - first: {x: 5, y: -9, z: 0}
    second:
      serializedVersion: 2
      m_TileIndex: 119
      m_TileSpriteIndex: 119
      m_TileMatrixIndex: 0
      m_TileColorIndex: 0
      m_TileObjectToInstantiateIndex: 65535
      dummyAlignment: 0
      m_AllTileFlags: 1073741825
  - first: {x: 6, y: -9, z: 0}
    second:
      serializedVersion: 2
      m_TileIndex: 120
      m_TileSpriteIndex: 120
      m_TileMatrixIndex: 0
      m_TileColorIndex: 0
      m_TileObjectToInstantiateIndex: 65535
      dummyAlignment: 0
      m_AllTileFlags: 1073741825
  - first: {x: 7, y: -9, z: 0}
    second:
      serializedVersion: 2
      m_TileIndex: 121
      m_TileSpriteIndex: 121
      m_TileMatrixIndex: 0
      m_TileColorIndex: 0
      m_TileObjectToInstantiateIndex: 65535
      dummyAlignment: 0
      m_AllTileFlags: 1073741825
  - first: {x: 8, y: -9, z: 0}
    second:
      serializedVersion: 2
      m_TileIndex: 122
      m_TileSpriteIndex: 122
      m_TileMatrixIndex: 0
      m_TileColorIndex: 0
      m_TileObjectToInstantiateIndex: 65535
      dummyAlignment: 0
      m_AllTileFlags: 1073741825
  - first: {x: 9, y: -9, z: 0}
    second:
      serializedVersion: 2
      m_TileIndex: 123
      m_TileSpriteIndex: 123
      m_TileMatrixIndex: 0
      m_TileColorIndex: 0
      m_TileObjectToInstantiateIndex: 65535
      dummyAlignment: 0
      m_AllTileFlags: 1073741825
  - first: {x: 11, y: -9, z: 0}
    second:
      serializedVersion: 2
      m_TileIndex: 124
      m_TileSpriteIndex: 124
      m_TileMatrixIndex: 0
      m_TileColorIndex: 0
      m_TileObjectToInstantiateIndex: 65535
      dummyAlignment: 0
      m_AllTileFlags: 1073741825
  - first: {x: 12, y: -9, z: 0}
    second:
      serializedVersion: 2
      m_TileIndex: 125
      m_TileSpriteIndex: 125
      m_TileMatrixIndex: 0
      m_TileColorIndex: 0
      m_TileObjectToInstantiateIndex: 65535
      dummyAlignment: 0
      m_AllTileFlags: 1073741825
  - first: {x: 13, y: -9, z: 0}
    second:
      serializedVersion: 2
      m_TileIndex: 126
      m_TileSpriteIndex: 126
      m_TileMatrixIndex: 0
      m_TileColorIndex: 0
      m_TileObjectToInstantiateIndex: 65535
      dummyAlignment: 0
      m_AllTileFlags: 1073741825
  - first: {x: 14, y: -9, z: 0}
    second:
      serializedVersion: 2
      m_TileIndex: 127
      m_TileSpriteIndex: 127
      m_TileMatrixIndex: 0
      m_TileColorIndex: 0
      m_TileObjectToInstantiateIndex: 65535
      dummyAlignment: 0
      m_AllTileFlags: 1073741825
  - first: {x: 16, y: -9, z: 0}
    second:
      serializedVersion: 2
      m_TileIndex: 128
      m_TileSpriteIndex: 128
      m_TileMatrixIndex: 0
      m_TileColorIndex: 0
      m_TileObjectToInstantiateIndex: 65535
      dummyAlignment: 0
      m_AllTileFlags: 1073741825
  - first: {x: 17, y: -9, z: 0}
    second:
      serializedVersion: 2
      m_TileIndex: 129
      m_TileSpriteIndex: 129
      m_TileMatrixIndex: 0
      m_TileColorIndex: 0
      m_TileObjectToInstantiateIndex: 65535
      dummyAlignment: 0
      m_AllTileFlags: 1073741825
  - first: {x: 18, y: -9, z: 0}
    second:
      serializedVersion: 2
      m_TileIndex: 130
      m_TileSpriteIndex: 130
      m_TileMatrixIndex: 0
      m_TileColorIndex: 0
      m_TileObjectToInstantiateIndex: 65535
      dummyAlignment: 0
      m_AllTileFlags: 1073741825
  - first: {x: 19, y: -9, z: 0}
    second:
      serializedVersion: 2
      m_TileIndex: 131
      m_TileSpriteIndex: 131
      m_TileMatrixIndex: 0
      m_TileColorIndex: 0
      m_TileObjectToInstantiateIndex: 65535
      dummyAlignment: 0
      m_AllTileFlags: 1073741825
  - first: {x: -1, y: -8, z: 0}
    second:
      serializedVersion: 2
      m_TileIndex: 96
      m_TileSpriteIndex: 96
      m_TileMatrixIndex: 0
      m_TileColorIndex: 0
      m_TileObjectToInstantiateIndex: 65535
      dummyAlignment: 0
      m_AllTileFlags: 1073741825
  - first: {x: 0, y: -8, z: 0}
    second:
      serializedVersion: 2
      m_TileIndex: 97
      m_TileSpriteIndex: 97
      m_TileMatrixIndex: 0
      m_TileColorIndex: 0
      m_TileObjectToInstantiateIndex: 65535
      dummyAlignment: 0
      m_AllTileFlags: 1073741825
  - first: {x: 1, y: -8, z: 0}
    second:
      serializedVersion: 2
      m_TileIndex: 98
      m_TileSpriteIndex: 98
      m_TileMatrixIndex: 0
      m_TileColorIndex: 0
      m_TileObjectToInstantiateIndex: 65535
      dummyAlignment: 0
      m_AllTileFlags: 1073741825
  - first: {x: 2, y: -8, z: 0}
    second:
      serializedVersion: 2
      m_TileIndex: 99
      m_TileSpriteIndex: 99
      m_TileMatrixIndex: 0
      m_TileColorIndex: 0
      m_TileObjectToInstantiateIndex: 65535
      dummyAlignment: 0
      m_AllTileFlags: 1073741825
  - first: {x: 3, y: -8, z: 0}
    second:
      serializedVersion: 2
      m_TileIndex: 100
      m_TileSpriteIndex: 100
      m_TileMatrixIndex: 0
      m_TileColorIndex: 0
      m_TileObjectToInstantiateIndex: 65535
      dummyAlignment: 0
      m_AllTileFlags: 1073741825
  - first: {x: 5, y: -8, z: 0}
    second:
      serializedVersion: 2
      m_TileIndex: 101
      m_TileSpriteIndex: 101
      m_TileMatrixIndex: 0
      m_TileColorIndex: 0
      m_TileObjectToInstantiateIndex: 65535
      dummyAlignment: 0
      m_AllTileFlags: 1073741825
  - first: {x: 6, y: -8, z: 0}
    second:
      serializedVersion: 2
      m_TileIndex: 102
      m_TileSpriteIndex: 102
      m_TileMatrixIndex: 0
      m_TileColorIndex: 0
      m_TileObjectToInstantiateIndex: 65535
      dummyAlignment: 0
      m_AllTileFlags: 1073741825
  - first: {x: 7, y: -8, z: 0}
    second:
      serializedVersion: 2
      m_TileIndex: 103
      m_TileSpriteIndex: 103
      m_TileMatrixIndex: 0
      m_TileColorIndex: 0
      m_TileObjectToInstantiateIndex: 65535
      dummyAlignment: 0
      m_AllTileFlags: 1073741825
  - first: {x: 8, y: -8, z: 0}
    second:
      serializedVersion: 2
      m_TileIndex: 104
      m_TileSpriteIndex: 104
      m_TileMatrixIndex: 0
      m_TileColorIndex: 0
      m_TileObjectToInstantiateIndex: 65535
      dummyAlignment: 0
      m_AllTileFlags: 1073741825
  - first: {x: 9, y: -8, z: 0}
    second:
      serializedVersion: 2
      m_TileIndex: 105
      m_TileSpriteIndex: 105
      m_TileMatrixIndex: 0
      m_TileColorIndex: 0
      m_TileObjectToInstantiateIndex: 65535
      dummyAlignment: 0
      m_AllTileFlags: 1073741825
  - first: {x: 11, y: -8, z: 0}
    second:
      serializedVersion: 2
      m_TileIndex: 106
      m_TileSpriteIndex: 106
      m_TileMatrixIndex: 0
      m_TileColorIndex: 0
      m_TileObjectToInstantiateIndex: 65535
      dummyAlignment: 0
      m_AllTileFlags: 1073741825
  - first: {x: 12, y: -8, z: 0}
    second:
      serializedVersion: 2
      m_TileIndex: 107
      m_TileSpriteIndex: 107
      m_TileMatrixIndex: 0
      m_TileColorIndex: 0
      m_TileObjectToInstantiateIndex: 65535
      dummyAlignment: 0
      m_AllTileFlags: 1073741825
  - first: {x: 13, y: -8, z: 0}
    second:
      serializedVersion: 2
      m_TileIndex: 108
      m_TileSpriteIndex: 108
      m_TileMatrixIndex: 0
      m_TileColorIndex: 0
      m_TileObjectToInstantiateIndex: 65535
      dummyAlignment: 0
      m_AllTileFlags: 1073741825
  - first: {x: 14, y: -8, z: 0}
    second:
      serializedVersion: 2
      m_TileIndex: 109
      m_TileSpriteIndex: 109
      m_TileMatrixIndex: 0
      m_TileColorIndex: 0
      m_TileObjectToInstantiateIndex: 65535
      dummyAlignment: 0
      m_AllTileFlags: 1073741825
  - first: {x: 16, y: -8, z: 0}
    second:
      serializedVersion: 2
      m_TileIndex: 110
      m_TileSpriteIndex: 110
      m_TileMatrixIndex: 0
      m_TileColorIndex: 0
      m_TileObjectToInstantiateIndex: 65535
      dummyAlignment: 0
      m_AllTileFlags: 1073741825
  - first: {x: 17, y: -8, z: 0}
    second:
      serializedVersion: 2
      m_TileIndex: 111
      m_TileSpriteIndex: 111
      m_TileMatrixIndex: 0
      m_TileColorIndex: 0
      m_TileObjectToInstantiateIndex: 65535
      dummyAlignment: 0
      m_AllTileFlags: 1073741825
  - first: {x: 18, y: -8, z: 0}
    second:
      serializedVersion: 2
      m_TileIndex: 112
      m_TileSpriteIndex: 112
      m_TileMatrixIndex: 0
      m_TileColorIndex: 0
      m_TileObjectToInstantiateIndex: 65535
      dummyAlignment: 0
      m_AllTileFlags: 1073741825
  - first: {x: 19, y: -8, z: 0}
    second:
      serializedVersion: 2
      m_TileIndex: 113
      m_TileSpriteIndex: 113
      m_TileMatrixIndex: 0
      m_TileColorIndex: 0
      m_TileObjectToInstantiateIndex: 65535
      dummyAlignment: 0
      m_AllTileFlags: 1073741825
  - first: {x: -1, y: -6, z: 0}
    second:
      serializedVersion: 2
      m_TileIndex: 84
      m_TileSpriteIndex: 84
      m_TileMatrixIndex: 0
      m_TileColorIndex: 0
      m_TileObjectToInstantiateIndex: 65535
      dummyAlignment: 0
      m_AllTileFlags: 1073741825
  - first: {x: 0, y: -6, z: 0}
    second:
      serializedVersion: 2
      m_TileIndex: 85
      m_TileSpriteIndex: 85
      m_TileMatrixIndex: 0
      m_TileColorIndex: 0
      m_TileObjectToInstantiateIndex: 65535
      dummyAlignment: 0
      m_AllTileFlags: 1073741825
  - first: {x: 1, y: -6, z: 0}
    second:
      serializedVersion: 2
      m_TileIndex: 86
      m_TileSpriteIndex: 86
      m_TileMatrixIndex: 0
      m_TileColorIndex: 0
      m_TileObjectToInstantiateIndex: 65535
      dummyAlignment: 0
      m_AllTileFlags: 1073741825
  - first: {x: 5, y: -6, z: 0}
    second:
      serializedVersion: 2
      m_TileIndex: 87
      m_TileSpriteIndex: 87
      m_TileMatrixIndex: 0
      m_TileColorIndex: 0
      m_TileObjectToInstantiateIndex: 65535
      dummyAlignment: 0
      m_AllTileFlags: 1073741825
  - first: {x: 6, y: -6, z: 0}
    second:
      serializedVersion: 2
      m_TileIndex: 88
      m_TileSpriteIndex: 88
      m_TileMatrixIndex: 0
      m_TileColorIndex: 0
      m_TileObjectToInstantiateIndex: 65535
      dummyAlignment: 0
      m_AllTileFlags: 1073741825
  - first: {x: 7, y: -6, z: 0}
    second:
      serializedVersion: 2
      m_TileIndex: 89
      m_TileSpriteIndex: 89
      m_TileMatrixIndex: 0
      m_TileColorIndex: 0
      m_TileObjectToInstantiateIndex: 65535
      dummyAlignment: 0
      m_AllTileFlags: 1073741825
  - first: {x: 12, y: -6, z: 0}
    second:
      serializedVersion: 2
      m_TileIndex: 90
      m_TileSpriteIndex: 90
      m_TileMatrixIndex: 0
      m_TileColorIndex: 0
      m_TileObjectToInstantiateIndex: 65535
      dummyAlignment: 0
      m_AllTileFlags: 1073741825
  - first: {x: 13, y: -6, z: 0}
    second:
      serializedVersion: 2
      m_TileIndex: 91
      m_TileSpriteIndex: 91
      m_TileMatrixIndex: 0
      m_TileColorIndex: 0
      m_TileObjectToInstantiateIndex: 65535
      dummyAlignment: 0
      m_AllTileFlags: 1073741825
  - first: {x: 14, y: -6, z: 0}
    second:
      serializedVersion: 2
      m_TileIndex: 92
      m_TileSpriteIndex: 92
      m_TileMatrixIndex: 0
      m_TileColorIndex: 0
      m_TileObjectToInstantiateIndex: 65535
      dummyAlignment: 0
      m_AllTileFlags: 1073741825
  - first: {x: 16, y: -6, z: 0}
    second:
      serializedVersion: 2
      m_TileIndex: 93
      m_TileSpriteIndex: 93
      m_TileMatrixIndex: 0
      m_TileColorIndex: 0
      m_TileObjectToInstantiateIndex: 65535
      dummyAlignment: 0
      m_AllTileFlags: 1073741825
  - first: {x: 17, y: -6, z: 0}
    second:
      serializedVersion: 2
      m_TileIndex: 94
      m_TileSpriteIndex: 94
      m_TileMatrixIndex: 0
      m_TileColorIndex: 0
      m_TileObjectToInstantiateIndex: 65535
      dummyAlignment: 0
      m_AllTileFlags: 1073741825
  - first: {x: 18, y: -6, z: 0}
    second:
      serializedVersion: 2
      m_TileIndex: 95
      m_TileSpriteIndex: 95
      m_TileMatrixIndex: 0
      m_TileColorIndex: 0
      m_TileObjectToInstantiateIndex: 65535
      dummyAlignment: 0
      m_AllTileFlags: 1073741825
  - first: {x: -1, y: -5, z: 0}
    second:
      serializedVersion: 2
      m_TileIndex: 65
      m_TileSpriteIndex: 65
      m_TileMatrixIndex: 0
      m_TileColorIndex: 0
      m_TileObjectToInstantiateIndex: 65535
      dummyAlignment: 0
      m_AllTileFlags: 1073741825
  - first: {x: 0, y: -5, z: 0}
    second:
      serializedVersion: 2
      m_TileIndex: 66
      m_TileSpriteIndex: 66
      m_TileMatrixIndex: 0
      m_TileColorIndex: 0
      m_TileObjectToInstantiateIndex: 65535
      dummyAlignment: 0
      m_AllTileFlags: 1073741825
  - first: {x: 1, y: -5, z: 0}
    second:
      serializedVersion: 2
      m_TileIndex: 67
      m_TileSpriteIndex: 67
      m_TileMatrixIndex: 0
      m_TileColorIndex: 0
      m_TileObjectToInstantiateIndex: 65535
      dummyAlignment: 0
      m_AllTileFlags: 1073741825
  - first: {x: 2, y: -5, z: 0}
    second:
      serializedVersion: 2
      m_TileIndex: 68
      m_TileSpriteIndex: 68
      m_TileMatrixIndex: 0
      m_TileColorIndex: 0
      m_TileObjectToInstantiateIndex: 65535
      dummyAlignment: 0
      m_AllTileFlags: 1073741825
  - first: {x: 3, y: -5, z: 0}
    second:
      serializedVersion: 2
      m_TileIndex: 69
      m_TileSpriteIndex: 69
      m_TileMatrixIndex: 0
      m_TileColorIndex: 0
      m_TileObjectToInstantiateIndex: 65535
      dummyAlignment: 0
      m_AllTileFlags: 1073741825
  - first: {x: 5, y: -5, z: 0}
    second:
      serializedVersion: 2
      m_TileIndex: 70
      m_TileSpriteIndex: 70
      m_TileMatrixIndex: 0
      m_TileColorIndex: 0
      m_TileObjectToInstantiateIndex: 65535
      dummyAlignment: 0
      m_AllTileFlags: 1073741825
  - first: {x: 6, y: -5, z: 0}
    second:
      serializedVersion: 2
      m_TileIndex: 71
      m_TileSpriteIndex: 71
      m_TileMatrixIndex: 0
      m_TileColorIndex: 0
      m_TileObjectToInstantiateIndex: 65535
      dummyAlignment: 0
      m_AllTileFlags: 1073741825
  - first: {x: 7, y: -5, z: 0}
    second:
      serializedVersion: 2
      m_TileIndex: 72
      m_TileSpriteIndex: 72
      m_TileMatrixIndex: 0
      m_TileColorIndex: 0
      m_TileObjectToInstantiateIndex: 65535
      dummyAlignment: 0
      m_AllTileFlags: 1073741825
  - first: {x: 8, y: -5, z: 0}
    second:
      serializedVersion: 2
      m_TileIndex: 73
      m_TileSpriteIndex: 73
      m_TileMatrixIndex: 0
      m_TileColorIndex: 0
      m_TileObjectToInstantiateIndex: 65535
      dummyAlignment: 0
      m_AllTileFlags: 1073741825
  - first: {x: 9, y: -5, z: 0}
    second:
      serializedVersion: 2
      m_TileIndex: 74
      m_TileSpriteIndex: 74
      m_TileMatrixIndex: 0
      m_TileColorIndex: 0
      m_TileObjectToInstantiateIndex: 65535
      dummyAlignment: 0
      m_AllTileFlags: 1073741825
  - first: {x: 11, y: -5, z: 0}
    second:
      serializedVersion: 2
      m_TileIndex: 75
      m_TileSpriteIndex: 75
      m_TileMatrixIndex: 0
      m_TileColorIndex: 0
      m_TileObjectToInstantiateIndex: 65535
      dummyAlignment: 0
      m_AllTileFlags: 1073741825
  - first: {x: 12, y: -5, z: 0}
    second:
      serializedVersion: 2
      m_TileIndex: 76
      m_TileSpriteIndex: 76
      m_TileMatrixIndex: 0
      m_TileColorIndex: 0
      m_TileObjectToInstantiateIndex: 65535
      dummyAlignment: 0
      m_AllTileFlags: 1073741825
  - first: {x: 13, y: -5, z: 0}
    second:
      serializedVersion: 2
      m_TileIndex: 77
      m_TileSpriteIndex: 77
      m_TileMatrixIndex: 0
      m_TileColorIndex: 0
      m_TileObjectToInstantiateIndex: 65535
      dummyAlignment: 0
      m_AllTileFlags: 1073741825
  - first: {x: 14, y: -5, z: 0}
    second:
      serializedVersion: 2
      m_TileIndex: 78
      m_TileSpriteIndex: 78
      m_TileMatrixIndex: 0
      m_TileColorIndex: 0
      m_TileObjectToInstantiateIndex: 65535
      dummyAlignment: 0
      m_AllTileFlags: 1073741825
  - first: {x: 16, y: -5, z: 0}
    second:
      serializedVersion: 2
      m_TileIndex: 79
      m_TileSpriteIndex: 79
      m_TileMatrixIndex: 0
      m_TileColorIndex: 0
      m_TileObjectToInstantiateIndex: 65535
      dummyAlignment: 0
      m_AllTileFlags: 1073741825
  - first: {x: 17, y: -5, z: 0}
    second:
      serializedVersion: 2
      m_TileIndex: 80
      m_TileSpriteIndex: 80
      m_TileMatrixIndex: 0
      m_TileColorIndex: 0
      m_TileObjectToInstantiateIndex: 65535
      dummyAlignment: 0
      m_AllTileFlags: 1073741825
  - first: {x: 18, y: -5, z: 0}
    second:
      serializedVersion: 2
      m_TileIndex: 81
      m_TileSpriteIndex: 81
      m_TileMatrixIndex: 0
      m_TileColorIndex: 0
      m_TileObjectToInstantiateIndex: 65535
      dummyAlignment: 0
      m_AllTileFlags: 1073741825
  - first: {x: 19, y: -5, z: 0}
    second:
      serializedVersion: 2
      m_TileIndex: 82
      m_TileSpriteIndex: 82
      m_TileMatrixIndex: 0
      m_TileColorIndex: 0
      m_TileObjectToInstantiateIndex: 65535
      dummyAlignment: 0
      m_AllTileFlags: 1073741825
  - first: {x: 20, y: -5, z: 0}
    second:
      serializedVersion: 2
      m_TileIndex: 83
      m_TileSpriteIndex: 83
      m_TileMatrixIndex: 0
      m_TileColorIndex: 0
      m_TileObjectToInstantiateIndex: 65535
      dummyAlignment: 0
      m_AllTileFlags: 1073741825
  - first: {x: -1, y: -4, z: 0}
    second:
      serializedVersion: 2
      m_TileIndex: 46
      m_TileSpriteIndex: 46
      m_TileMatrixIndex: 0
      m_TileColorIndex: 0
      m_TileObjectToInstantiateIndex: 65535
      dummyAlignment: 0
      m_AllTileFlags: 1073741825
  - first: {x: 0, y: -4, z: 0}
    second:
      serializedVersion: 2
      m_TileIndex: 47
      m_TileSpriteIndex: 47
      m_TileMatrixIndex: 0
      m_TileColorIndex: 0
      m_TileObjectToInstantiateIndex: 65535
      dummyAlignment: 0
      m_AllTileFlags: 1073741825
  - first: {x: 1, y: -4, z: 0}
    second:
      serializedVersion: 2
      m_TileIndex: 48
      m_TileSpriteIndex: 48
      m_TileMatrixIndex: 0
      m_TileColorIndex: 0
      m_TileObjectToInstantiateIndex: 65535
      dummyAlignment: 0
      m_AllTileFlags: 1073741825
  - first: {x: 2, y: -4, z: 0}
    second:
      serializedVersion: 2
      m_TileIndex: 49
      m_TileSpriteIndex: 49
      m_TileMatrixIndex: 0
      m_TileColorIndex: 0
      m_TileObjectToInstantiateIndex: 65535
      dummyAlignment: 0
      m_AllTileFlags: 1073741825
  - first: {x: 3, y: -4, z: 0}
    second:
      serializedVersion: 2
      m_TileIndex: 50
      m_TileSpriteIndex: 50
      m_TileMatrixIndex: 0
      m_TileColorIndex: 0
      m_TileObjectToInstantiateIndex: 65535
      dummyAlignment: 0
      m_AllTileFlags: 1073741825
  - first: {x: 5, y: -4, z: 0}
    second:
      serializedVersion: 2
      m_TileIndex: 51
      m_TileSpriteIndex: 51
      m_TileMatrixIndex: 0
      m_TileColorIndex: 0
      m_TileObjectToInstantiateIndex: 65535
      dummyAlignment: 0
      m_AllTileFlags: 1073741825
  - first: {x: 6, y: -4, z: 0}
    second:
      serializedVersion: 2
      m_TileIndex: 52
      m_TileSpriteIndex: 52
      m_TileMatrixIndex: 0
      m_TileColorIndex: 0
      m_TileObjectToInstantiateIndex: 65535
      dummyAlignment: 0
      m_AllTileFlags: 1073741825
  - first: {x: 7, y: -4, z: 0}
    second:
      serializedVersion: 2
      m_TileIndex: 53
      m_TileSpriteIndex: 53
      m_TileMatrixIndex: 0
      m_TileColorIndex: 0
      m_TileObjectToInstantiateIndex: 65535
      dummyAlignment: 0
      m_AllTileFlags: 1073741825
  - first: {x: 8, y: -4, z: 0}
    second:
      serializedVersion: 2
      m_TileIndex: 54
      m_TileSpriteIndex: 54
      m_TileMatrixIndex: 0
      m_TileColorIndex: 0
      m_TileObjectToInstantiateIndex: 65535
      dummyAlignment: 0
      m_AllTileFlags: 1073741825
  - first: {x: 9, y: -4, z: 0}
    second:
      serializedVersion: 2
      m_TileIndex: 55
      m_TileSpriteIndex: 55
      m_TileMatrixIndex: 0
      m_TileColorIndex: 0
      m_TileObjectToInstantiateIndex: 65535
      dummyAlignment: 0
      m_AllTileFlags: 1073741825
  - first: {x: 11, y: -4, z: 0}
    second:
      serializedVersion: 2
      m_TileIndex: 56
      m_TileSpriteIndex: 56
      m_TileMatrixIndex: 0
      m_TileColorIndex: 0
      m_TileObjectToInstantiateIndex: 65535
      dummyAlignment: 0
      m_AllTileFlags: 1073741825
  - first: {x: 12, y: -4, z: 0}
    second:
      serializedVersion: 2
      m_TileIndex: 57
      m_TileSpriteIndex: 57
      m_TileMatrixIndex: 0
      m_TileColorIndex: 0
      m_TileObjectToInstantiateIndex: 65535
      dummyAlignment: 0
      m_AllTileFlags: 1073741825
  - first: {x: 13, y: -4, z: 0}
    second:
      serializedVersion: 2
      m_TileIndex: 58
      m_TileSpriteIndex: 58
      m_TileMatrixIndex: 0
      m_TileColorIndex: 0
      m_TileObjectToInstantiateIndex: 65535
      dummyAlignment: 0
      m_AllTileFlags: 1073741825
  - first: {x: 14, y: -4, z: 0}
    second:
      serializedVersion: 2
      m_TileIndex: 59
      m_TileSpriteIndex: 59
      m_TileMatrixIndex: 0
      m_TileColorIndex: 0
      m_TileObjectToInstantiateIndex: 65535
      dummyAlignment: 0
      m_AllTileFlags: 1073741825
  - first: {x: 16, y: -4, z: 0}
    second:
      serializedVersion: 2
      m_TileIndex: 60
      m_TileSpriteIndex: 60
      m_TileMatrixIndex: 0
      m_TileColorIndex: 0
      m_TileObjectToInstantiateIndex: 65535
      dummyAlignment: 0
      m_AllTileFlags: 1073741825
  - first: {x: 17, y: -4, z: 0}
    second:
      serializedVersion: 2
      m_TileIndex: 61
      m_TileSpriteIndex: 61
      m_TileMatrixIndex: 0
      m_TileColorIndex: 0
      m_TileObjectToInstantiateIndex: 65535
      dummyAlignment: 0
      m_AllTileFlags: 1073741825
  - first: {x: 18, y: -4, z: 0}
    second:
      serializedVersion: 2
      m_TileIndex: 62
      m_TileSpriteIndex: 62
      m_TileMatrixIndex: 0
      m_TileColorIndex: 0
      m_TileObjectToInstantiateIndex: 65535
      dummyAlignment: 0
      m_AllTileFlags: 1073741825
  - first: {x: 19, y: -4, z: 0}
    second:
      serializedVersion: 2
      m_TileIndex: 63
      m_TileSpriteIndex: 63
      m_TileMatrixIndex: 0
      m_TileColorIndex: 0
      m_TileObjectToInstantiateIndex: 65535
      dummyAlignment: 0
      m_AllTileFlags: 1073741825
  - first: {x: 20, y: -4, z: 0}
    second:
      serializedVersion: 2
      m_TileIndex: 64
      m_TileSpriteIndex: 64
      m_TileMatrixIndex: 0
      m_TileColorIndex: 0
      m_TileObjectToInstantiateIndex: 65535
      dummyAlignment: 0
      m_AllTileFlags: 1073741825
  - first: {x: -1, y: -2, z: 0}
    second:
      serializedVersion: 2
      m_TileIndex: 34
      m_TileSpriteIndex: 34
      m_TileMatrixIndex: 0
      m_TileColorIndex: 0
      m_TileObjectToInstantiateIndex: 65535
      dummyAlignment: 0
      m_AllTileFlags: 1073741825
  - first: {x: 0, y: -2, z: 0}
    second:
      serializedVersion: 2
      m_TileIndex: 35
      m_TileSpriteIndex: 35
      m_TileMatrixIndex: 0
      m_TileColorIndex: 0
      m_TileObjectToInstantiateIndex: 65535
      dummyAlignment: 0
      m_AllTileFlags: 1073741825
  - first: {x: 1, y: -2, z: 0}
    second:
      serializedVersion: 2
      m_TileIndex: 36
      m_TileSpriteIndex: 36
      m_TileMatrixIndex: 0
      m_TileColorIndex: 0
      m_TileObjectToInstantiateIndex: 65535
      dummyAlignment: 0
      m_AllTileFlags: 1073741825
  - first: {x: 5, y: -2, z: 0}
    second:
      serializedVersion: 2
      m_TileIndex: 37
      m_TileSpriteIndex: 37
      m_TileMatrixIndex: 0
      m_TileColorIndex: 0
      m_TileObjectToInstantiateIndex: 65535
      dummyAlignment: 0
      m_AllTileFlags: 1073741825
  - first: {x: 6, y: -2, z: 0}
    second:
      serializedVersion: 2
      m_TileIndex: 38
      m_TileSpriteIndex: 38
      m_TileMatrixIndex: 0
      m_TileColorIndex: 0
      m_TileObjectToInstantiateIndex: 65535
      dummyAlignment: 0
      m_AllTileFlags: 1073741825
  - first: {x: 7, y: -2, z: 0}
    second:
      serializedVersion: 2
      m_TileIndex: 39
      m_TileSpriteIndex: 39
      m_TileMatrixIndex: 0
      m_TileColorIndex: 0
      m_TileObjectToInstantiateIndex: 65535
      dummyAlignment: 0
      m_AllTileFlags: 1073741825
  - first: {x: 12, y: -2, z: 0}
    second:
      serializedVersion: 2
      m_TileIndex: 40
      m_TileSpriteIndex: 40
      m_TileMatrixIndex: 0
      m_TileColorIndex: 0
      m_TileObjectToInstantiateIndex: 65535
      dummyAlignment: 0
      m_AllTileFlags: 1073741825
  - first: {x: 13, y: -2, z: 0}
    second:
      serializedVersion: 2
      m_TileIndex: 41
      m_TileSpriteIndex: 41
      m_TileMatrixIndex: 0
      m_TileColorIndex: 0
      m_TileObjectToInstantiateIndex: 65535
      dummyAlignment: 0
      m_AllTileFlags: 1073741825
  - first: {x: 14, y: -2, z: 0}
    second:
      serializedVersion: 2
      m_TileIndex: 42
      m_TileSpriteIndex: 42
      m_TileMatrixIndex: 0
      m_TileColorIndex: 0
      m_TileObjectToInstantiateIndex: 65535
      dummyAlignment: 0
      m_AllTileFlags: 1073741825
  - first: {x: 16, y: -2, z: 0}
    second:
      serializedVersion: 2
      m_TileIndex: 43
      m_TileSpriteIndex: 43
      m_TileMatrixIndex: 0
      m_TileColorIndex: 0
      m_TileObjectToInstantiateIndex: 65535
      dummyAlignment: 0
      m_AllTileFlags: 1073741825
  - first: {x: 17, y: -2, z: 0}
    second:
      serializedVersion: 2
      m_TileIndex: 44
      m_TileSpriteIndex: 44
      m_TileMatrixIndex: 0
      m_TileColorIndex: 0
      m_TileObjectToInstantiateIndex: 65535
      dummyAlignment: 0
      m_AllTileFlags: 1073741825
  - first: {x: 18, y: -2, z: 0}
    second:
      serializedVersion: 2
      m_TileIndex: 45
      m_TileSpriteIndex: 45
      m_TileMatrixIndex: 0
      m_TileColorIndex: 0
      m_TileObjectToInstantiateIndex: 65535
      dummyAlignment: 0
      m_AllTileFlags: 1073741825
  - first: {x: -1, y: -1, z: 0}
    second:
      serializedVersion: 2
      m_TileIndex: 17
      m_TileSpriteIndex: 17
      m_TileMatrixIndex: 0
      m_TileColorIndex: 0
      m_TileObjectToInstantiateIndex: 65535
      dummyAlignment: 0
      m_AllTileFlags: 1073741825
  - first: {x: 0, y: -1, z: 0}
    second:
      serializedVersion: 2
      m_TileIndex: 18
      m_TileSpriteIndex: 18
      m_TileMatrixIndex: 0
      m_TileColorIndex: 0
      m_TileObjectToInstantiateIndex: 65535
      dummyAlignment: 0
      m_AllTileFlags: 1073741825
  - first: {x: 1, y: -1, z: 0}
    second:
      serializedVersion: 2
      m_TileIndex: 19
      m_TileSpriteIndex: 19
      m_TileMatrixIndex: 0
      m_TileColorIndex: 0
      m_TileObjectToInstantiateIndex: 65535
      dummyAlignment: 0
      m_AllTileFlags: 1073741825
  - first: {x: 2, y: -1, z: 0}
    second:
      serializedVersion: 2
      m_TileIndex: 20
      m_TileSpriteIndex: 20
      m_TileMatrixIndex: 0
      m_TileColorIndex: 0
      m_TileObjectToInstantiateIndex: 65535
      dummyAlignment: 0
      m_AllTileFlags: 1073741825
  - first: {x: 3, y: -1, z: 0}
    second:
      serializedVersion: 2
      m_TileIndex: 21
      m_TileSpriteIndex: 21
      m_TileMatrixIndex: 0
      m_TileColorIndex: 0
      m_TileObjectToInstantiateIndex: 65535
      dummyAlignment: 0
      m_AllTileFlags: 1073741825
  - first: {x: 5, y: -1, z: 0}
    second:
      serializedVersion: 2
      m_TileIndex: 22
      m_TileSpriteIndex: 22
      m_TileMatrixIndex: 0
      m_TileColorIndex: 0
      m_TileObjectToInstantiateIndex: 65535
      dummyAlignment: 0
      m_AllTileFlags: 1073741825
  - first: {x: 6, y: -1, z: 0}
    second:
      serializedVersion: 2
      m_TileIndex: 23
      m_TileSpriteIndex: 23
      m_TileMatrixIndex: 0
      m_TileColorIndex: 0
      m_TileObjectToInstantiateIndex: 65535
      dummyAlignment: 0
      m_AllTileFlags: 1073741825
  - first: {x: 7, y: -1, z: 0}
    second:
      serializedVersion: 2
      m_TileIndex: 24
      m_TileSpriteIndex: 24
      m_TileMatrixIndex: 0
      m_TileColorIndex: 0
      m_TileObjectToInstantiateIndex: 65535
      dummyAlignment: 0
      m_AllTileFlags: 1073741825
  - first: {x: 8, y: -1, z: 0}
    second:
      serializedVersion: 2
      m_TileIndex: 25
      m_TileSpriteIndex: 25
      m_TileMatrixIndex: 0
      m_TileColorIndex: 0
      m_TileObjectToInstantiateIndex: 65535
      dummyAlignment: 0
      m_AllTileFlags: 1073741825
  - first: {x: 9, y: -1, z: 0}
    second:
      serializedVersion: 2
      m_TileIndex: 26
      m_TileSpriteIndex: 26
      m_TileMatrixIndex: 0
      m_TileColorIndex: 0
      m_TileObjectToInstantiateIndex: 65535
      dummyAlignment: 0
      m_AllTileFlags: 1073741825
  - first: {x: 11, y: -1, z: 0}
    second:
      serializedVersion: 2
      m_TileIndex: 27
      m_TileSpriteIndex: 27
      m_TileMatrixIndex: 0
      m_TileColorIndex: 0
      m_TileObjectToInstantiateIndex: 65535
      dummyAlignment: 0
      m_AllTileFlags: 1073741825
  - first: {x: 12, y: -1, z: 0}
    second:
      serializedVersion: 2
      m_TileIndex: 28
      m_TileSpriteIndex: 28
      m_TileMatrixIndex: 0
      m_TileColorIndex: 0
      m_TileObjectToInstantiateIndex: 65535
      dummyAlignment: 0
      m_AllTileFlags: 1073741825
  - first: {x: 13, y: -1, z: 0}
    second:
      serializedVersion: 2
      m_TileIndex: 29
      m_TileSpriteIndex: 29
      m_TileMatrixIndex: 0
      m_TileColorIndex: 0
      m_TileObjectToInstantiateIndex: 65535
      dummyAlignment: 0
      m_AllTileFlags: 1073741825
  - first: {x: 14, y: -1, z: 0}
    second:
      serializedVersion: 2
      m_TileIndex: 30
      m_TileSpriteIndex: 30
      m_TileMatrixIndex: 0
      m_TileColorIndex: 0
      m_TileObjectToInstantiateIndex: 65535
      dummyAlignment: 0
      m_AllTileFlags: 1073741825
  - first: {x: 16, y: -1, z: 0}
    second:
      serializedVersion: 2
      m_TileIndex: 31
      m_TileSpriteIndex: 31
      m_TileMatrixIndex: 0
      m_TileColorIndex: 0
      m_TileObjectToInstantiateIndex: 65535
      dummyAlignment: 0
      m_AllTileFlags: 1073741825
  - first: {x: 17, y: -1, z: 0}
    second:
      serializedVersion: 2
      m_TileIndex: 32
      m_TileSpriteIndex: 32
      m_TileMatrixIndex: 0
      m_TileColorIndex: 0
      m_TileObjectToInstantiateIndex: 65535
      dummyAlignment: 0
      m_AllTileFlags: 1073741825
  - first: {x: 18, y: -1, z: 0}
    second:
      serializedVersion: 2
      m_TileIndex: 33
      m_TileSpriteIndex: 33
      m_TileMatrixIndex: 0
      m_TileColorIndex: 0
      m_TileObjectToInstantiateIndex: 65535
      dummyAlignment: 0
      m_AllTileFlags: 1073741825
  - first: {x: -1, y: 0, z: 0}
    second:
      serializedVersion: 2
      m_TileIndex: 0
      m_TileSpriteIndex: 0
      m_TileMatrixIndex: 0
      m_TileColorIndex: 0
      m_TileObjectToInstantiateIndex: 65535
      dummyAlignment: 0
      m_AllTileFlags: 1073741825
  - first: {x: 0, y: 0, z: 0}
    second:
      serializedVersion: 2
      m_TileIndex: 1
      m_TileSpriteIndex: 1
      m_TileMatrixIndex: 0
      m_TileColorIndex: 0
      m_TileObjectToInstantiateIndex: 65535
      dummyAlignment: 0
      m_AllTileFlags: 1073741825
  - first: {x: 1, y: 0, z: 0}
    second:
      serializedVersion: 2
      m_TileIndex: 2
      m_TileSpriteIndex: 2
      m_TileMatrixIndex: 0
      m_TileColorIndex: 0
      m_TileObjectToInstantiateIndex: 65535
      dummyAlignment: 0
      m_AllTileFlags: 1073741825
  - first: {x: 2, y: 0, z: 0}
    second:
      serializedVersion: 2
      m_TileIndex: 3
      m_TileSpriteIndex: 3
      m_TileMatrixIndex: 0
      m_TileColorIndex: 0
      m_TileObjectToInstantiateIndex: 65535
      dummyAlignment: 0
      m_AllTileFlags: 1073741825
  - first: {x: 3, y: 0, z: 0}
    second:
      serializedVersion: 2
      m_TileIndex: 4
      m_TileSpriteIndex: 4
      m_TileMatrixIndex: 0
      m_TileColorIndex: 0
      m_TileObjectToInstantiateIndex: 65535
      dummyAlignment: 0
      m_AllTileFlags: 1073741825
  - first: {x: 5, y: 0, z: 0}
    second:
      serializedVersion: 2
      m_TileIndex: 5
      m_TileSpriteIndex: 5
      m_TileMatrixIndex: 0
      m_TileColorIndex: 0
      m_TileObjectToInstantiateIndex: 65535
      dummyAlignment: 0
      m_AllTileFlags: 1073741825
  - first: {x: 6, y: 0, z: 0}
    second:
      serializedVersion: 2
      m_TileIndex: 6
      m_TileSpriteIndex: 6
      m_TileMatrixIndex: 0
      m_TileColorIndex: 0
      m_TileObjectToInstantiateIndex: 65535
      dummyAlignment: 0
      m_AllTileFlags: 1073741825
  - first: {x: 7, y: 0, z: 0}
    second:
      serializedVersion: 2
      m_TileIndex: 7
      m_TileSpriteIndex: 7
      m_TileMatrixIndex: 0
      m_TileColorIndex: 0
      m_TileObjectToInstantiateIndex: 65535
      dummyAlignment: 0
      m_AllTileFlags: 1073741825
  - first: {x: 8, y: 0, z: 0}
    second:
      serializedVersion: 2
      m_TileIndex: 8
      m_TileSpriteIndex: 8
      m_TileMatrixIndex: 0
      m_TileColorIndex: 0
      m_TileObjectToInstantiateIndex: 65535
      dummyAlignment: 0
      m_AllTileFlags: 1073741825
  - first: {x: 9, y: 0, z: 0}
    second:
      serializedVersion: 2
      m_TileIndex: 9
      m_TileSpriteIndex: 9
      m_TileMatrixIndex: 0
      m_TileColorIndex: 0
      m_TileObjectToInstantiateIndex: 65535
      dummyAlignment: 0
      m_AllTileFlags: 1073741825
  - first: {x: 11, y: 0, z: 0}
    second:
      serializedVersion: 2
      m_TileIndex: 10
      m_TileSpriteIndex: 10
      m_TileMatrixIndex: 0
      m_TileColorIndex: 0
      m_TileObjectToInstantiateIndex: 65535
      dummyAlignment: 0
      m_AllTileFlags: 1073741825
  - first: {x: 12, y: 0, z: 0}
    second:
      serializedVersion: 2
      m_TileIndex: 11
      m_TileSpriteIndex: 11
      m_TileMatrixIndex: 0
      m_TileColorIndex: 0
      m_TileObjectToInstantiateIndex: 65535
      dummyAlignment: 0
      m_AllTileFlags: 1073741825
  - first: {x: 13, y: 0, z: 0}
    second:
      serializedVersion: 2
      m_TileIndex: 12
      m_TileSpriteIndex: 12
      m_TileMatrixIndex: 0
      m_TileColorIndex: 0
      m_TileObjectToInstantiateIndex: 65535
      dummyAlignment: 0
      m_AllTileFlags: 1073741825
  - first: {x: 14, y: 0, z: 0}
    second:
      serializedVersion: 2
      m_TileIndex: 13
      m_TileSpriteIndex: 13
      m_TileMatrixIndex: 0
      m_TileColorIndex: 0
      m_TileObjectToInstantiateIndex: 65535
      dummyAlignment: 0
      m_AllTileFlags: 1073741825
  - first: {x: 16, y: 0, z: 0}
    second:
      serializedVersion: 2
      m_TileIndex: 14
      m_TileSpriteIndex: 14
      m_TileMatrixIndex: 0
      m_TileColorIndex: 0
      m_TileObjectToInstantiateIndex: 65535
      dummyAlignment: 0
      m_AllTileFlags: 1073741825
  - first: {x: 17, y: 0, z: 0}
    second:
      serializedVersion: 2
      m_TileIndex: 15
      m_TileSpriteIndex: 15
      m_TileMatrixIndex: 0
      m_TileColorIndex: 0
      m_TileObjectToInstantiateIndex: 65535
      dummyAlignment: 0
      m_AllTileFlags: 1073741825
  - first: {x: 18, y: 0, z: 0}
    second:
      serializedVersion: 2
      m_TileIndex: 16
      m_TileSpriteIndex: 16
      m_TileMatrixIndex: 0
      m_TileColorIndex: 0
      m_TileObjectToInstantiateIndex: 65535
      dummyAlignment: 0
      m_AllTileFlags: 1073741825
  m_AnimatedTiles: {}
  m_TileAssetArray:
  - m_RefCount: 1
    m_Data: {fileID: 11400000, guid: 99fe8bf1fc719764494624629970361a, type: 2}
  - m_RefCount: 1
    m_Data: {fileID: 11400000, guid: 2b9961b2f6a7fd547a453094d254a12b, type: 2}
  - m_RefCount: 1
    m_Data: {fileID: 11400000, guid: af61b1cf32661df488a5c23d29e5e50e, type: 2}
  - m_RefCount: 1
    m_Data: {fileID: 11400000, guid: ce76b3b6d162e584f9cb2dce270cc407, type: 2}
  - m_RefCount: 1
    m_Data: {fileID: 11400000, guid: ae7647571b6a4b34aa0f3a590062f880, type: 2}
  - m_RefCount: 1
    m_Data: {fileID: 11400000, guid: ae45cfb605ef67b4cbf7312c1e1ebad8, type: 2}
  - m_RefCount: 1
    m_Data: {fileID: 11400000, guid: d97b13e4d71dc7f4194797c977258eb3, type: 2}
  - m_RefCount: 1
    m_Data: {fileID: 11400000, guid: c3e8763278407714d8ae7dedf32f7828, type: 2}
  - m_RefCount: 1
    m_Data: {fileID: 11400000, guid: cfc4b6b03d0b28944920f7ec6802773c, type: 2}
  - m_RefCount: 1
    m_Data: {fileID: 11400000, guid: 1c5f4209aca5cac4cb1f05d827fec985, type: 2}
  - m_RefCount: 1
    m_Data: {fileID: 11400000, guid: 09a183f215b620441b0a5e36cebf7160, type: 2}
  - m_RefCount: 1
    m_Data: {fileID: 11400000, guid: b0610dec261764b4880cb26577ac7d82, type: 2}
  - m_RefCount: 1
    m_Data: {fileID: 11400000, guid: a629d0777b3678a4ab31aade3354ef6e, type: 2}
  - m_RefCount: 1
    m_Data: {fileID: 11400000, guid: 712a2f73f1c88d3479f9e206493f041b, type: 2}
  - m_RefCount: 1
    m_Data: {fileID: 11400000, guid: 32da5594308411f44881b8edfee36d6f, type: 2}
  - m_RefCount: 1
    m_Data: {fileID: 11400000, guid: c0a60de6028ae3a44b0a8b7af3ec0620, type: 2}
  - m_RefCount: 1
    m_Data: {fileID: 11400000, guid: 75ffc7c1ddae9e0408f7db2a79624cb6, type: 2}
  - m_RefCount: 1
    m_Data: {fileID: 11400000, guid: 0b09231a6a16eb54aa3a3a5e48959073, type: 2}
  - m_RefCount: 1
    m_Data: {fileID: 11400000, guid: f03d272a01a26af4db7ec4635ee985ab, type: 2}
  - m_RefCount: 1
    m_Data: {fileID: 11400000, guid: 305c0c2a1afbb0d40b2c239dd5db4fe6, type: 2}
  - m_RefCount: 1
    m_Data: {fileID: 11400000, guid: a842771729300d346a86b69e19ed790e, type: 2}
  - m_RefCount: 1
    m_Data: {fileID: 11400000, guid: 24699ea9f8c691143bfe34afc5e7010d, type: 2}
  - m_RefCount: 1
    m_Data: {fileID: 11400000, guid: 3b3a4068757050347b4f1d3f29edde56, type: 2}
  - m_RefCount: 1
    m_Data: {fileID: 11400000, guid: 2e027f638c347c840b9c89961a3223f5, type: 2}
  - m_RefCount: 1
    m_Data: {fileID: 11400000, guid: 163afcd88b6e92347aa809fecfb11fb3, type: 2}
  - m_RefCount: 1
    m_Data: {fileID: 11400000, guid: 067bcf02638a5dc4f84f485059c23bc4, type: 2}
  - m_RefCount: 1
    m_Data: {fileID: 11400000, guid: 5312dda50f9a85a4a920bcea123953ee, type: 2}
  - m_RefCount: 1
    m_Data: {fileID: 11400000, guid: 48268926a42c9a747aebaf5f67c1e8de, type: 2}
  - m_RefCount: 1
    m_Data: {fileID: 11400000, guid: 00e9af709b43c0c4ca5451fe1dd87504, type: 2}
  - m_RefCount: 1
    m_Data: {fileID: 11400000, guid: 7d969a4d4d927a24b8871eac6b37566c, type: 2}
  - m_RefCount: 1
    m_Data: {fileID: 11400000, guid: 2fa7f304af6ca0a4499994970c5efa2a, type: 2}
  - m_RefCount: 1
    m_Data: {fileID: 11400000, guid: fd34b8a7fcff41d4f9ec2ded87ae15cc, type: 2}
  - m_RefCount: 1
    m_Data: {fileID: 11400000, guid: b04a7814ca56e8244ae470dd63a9af96, type: 2}
  - m_RefCount: 1
    m_Data: {fileID: 11400000, guid: d2392cefe5626b240aef9e5aa4cfe0a1, type: 2}
  - m_RefCount: 1
    m_Data: {fileID: 11400000, guid: 3e3a70e1d20f2594e85c557be8ee67ac, type: 2}
  - m_RefCount: 1
    m_Data: {fileID: 11400000, guid: 2fd9bede4b866fd4cb6af3bc63d57f3e, type: 2}
  - m_RefCount: 1
    m_Data: {fileID: 11400000, guid: 9f6d2c0a8af6b784da68640175983055, type: 2}
  - m_RefCount: 1
    m_Data: {fileID: 11400000, guid: 0af9065cf71f8be499019fadc04eb603, type: 2}
  - m_RefCount: 1
    m_Data: {fileID: 11400000, guid: 80391c04fc98097419580899ace1b7f5, type: 2}
  - m_RefCount: 1
    m_Data: {fileID: 11400000, guid: 63224d1014a17294a81c32b51cb444af, type: 2}
  - m_RefCount: 1
    m_Data: {fileID: 11400000, guid: f003d910818e2c04686c7368db490388, type: 2}
  - m_RefCount: 1
    m_Data: {fileID: 11400000, guid: 9d40bd8c88468ea489567190cb6a5d68, type: 2}
  - m_RefCount: 1
    m_Data: {fileID: 11400000, guid: db06cef6a08519e4191c8f3edc7996a1, type: 2}
  - m_RefCount: 1
    m_Data: {fileID: 11400000, guid: 46d1fc765049e9a43bb1bb9e5689dcd0, type: 2}
  - m_RefCount: 1
    m_Data: {fileID: 11400000, guid: 99702d4f1f0c892428c3cf5fca6c1707, type: 2}
  - m_RefCount: 1
    m_Data: {fileID: 11400000, guid: 456d4d22e61444b468f455561804f704, type: 2}
  - m_RefCount: 1
    m_Data: {fileID: 11400000, guid: d809877c43b694f44b80e042853fb526, type: 2}
  - m_RefCount: 1
    m_Data: {fileID: 11400000, guid: 5a85f4675025cc74cb0c6242883d6f7d, type: 2}
  - m_RefCount: 1
    m_Data: {fileID: 11400000, guid: 8e2d427a86cfee340b4f5d23f0d7f869, type: 2}
  - m_RefCount: 1
    m_Data: {fileID: 11400000, guid: f340e7a0dae7af849939ed46ee071ad5, type: 2}
  - m_RefCount: 1
    m_Data: {fileID: 11400000, guid: eab0eb29a36b47045b943c876583860f, type: 2}
  - m_RefCount: 1
    m_Data: {fileID: 11400000, guid: 2e180439498c81943843261911dc22ad, type: 2}
  - m_RefCount: 1
    m_Data: {fileID: 11400000, guid: 7a3c1731e99c58d4dafb96ddfd319962, type: 2}
  - m_RefCount: 1
    m_Data: {fileID: 11400000, guid: c987b721387554742b0ac3a0e70cae69, type: 2}
  - m_RefCount: 1
    m_Data: {fileID: 11400000, guid: 9b52d2fbd6ed7c14c95d35832a958a5e, type: 2}
  - m_RefCount: 1
    m_Data: {fileID: 11400000, guid: fc9794bb10933a44dbb7f992f1c0c01f, type: 2}
  - m_RefCount: 1
    m_Data: {fileID: 11400000, guid: e43be34951bbea749a1e0fe86f8f4445, type: 2}
  - m_RefCount: 1
    m_Data: {fileID: 11400000, guid: daef3286cab39e142a5be3a1bf8f5b49, type: 2}
  - m_RefCount: 1
    m_Data: {fileID: 11400000, guid: 5a50a79cd03df204b9eacf08409b8262, type: 2}
  - m_RefCount: 1
    m_Data: {fileID: 11400000, guid: e08b8c33e3ce68343b8d75e29c6da87b, type: 2}
  - m_RefCount: 1
    m_Data: {fileID: 11400000, guid: 726e16c47a0addc49bd0e4fb4600a2c5, type: 2}
  - m_RefCount: 1
    m_Data: {fileID: 11400000, guid: 46f03fc3dae42384c8895e01e9483f9b, type: 2}
  - m_RefCount: 1
    m_Data: {fileID: 11400000, guid: 6c7542913e2a556488b486d7e400de39, type: 2}
  - m_RefCount: 1
    m_Data: {fileID: 11400000, guid: 506a450d43e4f664cb2be7830ebb8e09, type: 2}
  - m_RefCount: 1
    m_Data: {fileID: 11400000, guid: 06f0939fac1ed1345a7eb50da6871727, type: 2}
  - m_RefCount: 1
    m_Data: {fileID: 11400000, guid: 2a46108c288655840a5cac3ce57b9b89, type: 2}
  - m_RefCount: 1
    m_Data: {fileID: 11400000, guid: 79e8f5457923e044a9ef81edc9aee99e, type: 2}
  - m_RefCount: 1
    m_Data: {fileID: 11400000, guid: ced9737c97f61034ca2ab6a3d484de8a, type: 2}
  - m_RefCount: 1
    m_Data: {fileID: 11400000, guid: 67a4d1fb980efe74f9733c755f0e1c30, type: 2}
  - m_RefCount: 1
    m_Data: {fileID: 11400000, guid: 82bfd392758a4384b9db295e230010a2, type: 2}
  - m_RefCount: 1
    m_Data: {fileID: 11400000, guid: 28a957c75fddedc43bcdba81572c87a8, type: 2}
  - m_RefCount: 1
    m_Data: {fileID: 11400000, guid: 427e81fca0bcf8f47965639e9a397963, type: 2}
  - m_RefCount: 1
    m_Data: {fileID: 11400000, guid: dcf80a4854f333040b778928e16424b0, type: 2}
  - m_RefCount: 1
    m_Data: {fileID: 11400000, guid: 575e8acfa7ddf0b429a1b95975918515, type: 2}
  - m_RefCount: 1
    m_Data: {fileID: 11400000, guid: 6bf567bc996e0624e8347ddc41e9a17a, type: 2}
  - m_RefCount: 1
    m_Data: {fileID: 11400000, guid: a85761cc4d29ffc42ae3467c2cb065af, type: 2}
  - m_RefCount: 1
    m_Data: {fileID: 11400000, guid: 0699b3c0bf66b554bb165c92740afd34, type: 2}
  - m_RefCount: 1
    m_Data: {fileID: 11400000, guid: b996510e8f463984e95b9c794686e964, type: 2}
  - m_RefCount: 1
    m_Data: {fileID: 11400000, guid: d30ebbfb2db51f240a5d41791c77a9c3, type: 2}
  - m_RefCount: 1
    m_Data: {fileID: 11400000, guid: 7c38b9c4f93a73e48acd15a1958443fb, type: 2}
  - m_RefCount: 1
    m_Data: {fileID: 11400000, guid: b7a5df1872123de46afdab2260e4d243, type: 2}
  - m_RefCount: 1
    m_Data: {fileID: 11400000, guid: 2143f845681403849969d54402d3a986, type: 2}
  - m_RefCount: 1
    m_Data: {fileID: 11400000, guid: 128a78ac6445c9d429a27c7da6589da5, type: 2}
  - m_RefCount: 1
    m_Data: {fileID: 11400000, guid: 441a4da16aecf5844801a042b8994641, type: 2}
  - m_RefCount: 1
    m_Data: {fileID: 11400000, guid: a48e040e25c7e4f408627c563500a060, type: 2}
  - m_RefCount: 1
    m_Data: {fileID: 11400000, guid: e9b27666f2687d840a806bb6d4fe388d, type: 2}
  - m_RefCount: 1
    m_Data: {fileID: 11400000, guid: 6d803e2ddddb9c1438bf7e4f49576ac2, type: 2}
  - m_RefCount: 1
    m_Data: {fileID: 11400000, guid: 5f963892b77698047a828412f410fa8c, type: 2}
  - m_RefCount: 1
    m_Data: {fileID: 11400000, guid: 33082c3289004964b80d0557adcf4068, type: 2}
  - m_RefCount: 1
    m_Data: {fileID: 11400000, guid: 1b87790a01c452146b6ba61f82bcbc65, type: 2}
  - m_RefCount: 1
    m_Data: {fileID: 11400000, guid: f51524d50debf0149bdebb05c604fef0, type: 2}
  - m_RefCount: 1
    m_Data: {fileID: 11400000, guid: 23609a72c55bf804abc042d49be5a021, type: 2}
  - m_RefCount: 1
    m_Data: {fileID: 11400000, guid: c10cf9e0be1b27846b65416de5460816, type: 2}
  - m_RefCount: 1
    m_Data: {fileID: 11400000, guid: 4f31fd2691e7b4e4eaf367af84810d7b, type: 2}
  - m_RefCount: 1
    m_Data: {fileID: 11400000, guid: b3dcbc77c139b2740b9ad0cf01a73b7b, type: 2}
  - m_RefCount: 1
    m_Data: {fileID: 11400000, guid: 9e954e136a111b949a0b8af0b4448279, type: 2}
  - m_RefCount: 1
    m_Data: {fileID: 11400000, guid: b7268b6674dfdda4a80fd52653471003, type: 2}
  - m_RefCount: 1
    m_Data: {fileID: 11400000, guid: c9796a921e11a4346bf8c0e122b104aa, type: 2}
  - m_RefCount: 1
    m_Data: {fileID: 11400000, guid: d31634aba0491824580aa20f50f4b6b1, type: 2}
  - m_RefCount: 1
    m_Data: {fileID: 11400000, guid: d3937527e40ec8f4282ce74b01ed828d, type: 2}
  - m_RefCount: 1
    m_Data: {fileID: 11400000, guid: c08123462e9f3ca48ae69746145dbcb4, type: 2}
  - m_RefCount: 1
    m_Data: {fileID: 11400000, guid: 817fee7b81ac89343986329471bb67ad, type: 2}
  - m_RefCount: 1
    m_Data: {fileID: 11400000, guid: 744420f5512e0d8489a5ecd3323268d6, type: 2}
  - m_RefCount: 1
    m_Data: {fileID: 11400000, guid: 375c8db2b0b269e42b49ab60decb000c, type: 2}
  - m_RefCount: 1
    m_Data: {fileID: 11400000, guid: f1c889513a3c2254096b5a6511e90845, type: 2}
  - m_RefCount: 1
    m_Data: {fileID: 11400000, guid: 672ae6807b0ad6244871e3c6a5a20870, type: 2}
  - m_RefCount: 1
    m_Data: {fileID: 11400000, guid: c98960b79a2ae114a91680e04b090974, type: 2}
  - m_RefCount: 1
    m_Data: {fileID: 11400000, guid: f58cdeaced6f0dc44a91136bdfbc8d1b, type: 2}
  - m_RefCount: 1
    m_Data: {fileID: 11400000, guid: 7148a1dfac498294a86dbcf9129f72ff, type: 2}
  - m_RefCount: 1
    m_Data: {fileID: 11400000, guid: dc93c96c3820be1458550579854e25f2, type: 2}
  - m_RefCount: 1
    m_Data: {fileID: 11400000, guid: f9e27d33f4525aa4bb80d8c6694f057b, type: 2}
  - m_RefCount: 1
    m_Data: {fileID: 11400000, guid: 69bd44eedb415e44fb51bc3170e3e88b, type: 2}
  - m_RefCount: 1
    m_Data: {fileID: 11400000, guid: 37515ffb7b5c6bc4dbbe0cb191d2b0cc, type: 2}
  - m_RefCount: 1
    m_Data: {fileID: 11400000, guid: 1ef9f2ee8bdd25e4a99bfa3485cb56c6, type: 2}
  - m_RefCount: 1
    m_Data: {fileID: 11400000, guid: 34ef3cc9d3d0c8542960c6d4eb002bc3, type: 2}
  - m_RefCount: 1
    m_Data: {fileID: 11400000, guid: c13ee7ef2df53f54996092f78025555f, type: 2}
  - m_RefCount: 1
    m_Data: {fileID: 11400000, guid: 664952eb3ad77c644b85362d1c651fa9, type: 2}
  - m_RefCount: 1
    m_Data: {fileID: 11400000, guid: cd2c33dac383e3b4eb15768a3544944d, type: 2}
  - m_RefCount: 1
    m_Data: {fileID: 11400000, guid: a9d0cff99b8d23f49b1e6dc408eca038, type: 2}
  - m_RefCount: 1
    m_Data: {fileID: 11400000, guid: 2aab4f441b6fb184580a328b7e811787, type: 2}
  - m_RefCount: 1
    m_Data: {fileID: 11400000, guid: e6be6b115f625ee479b9ccaf52124514, type: 2}
  - m_RefCount: 1
    m_Data: {fileID: 11400000, guid: 6a824647f0cb0b84d918bec2ab6a3d96, type: 2}
  - m_RefCount: 1
    m_Data: {fileID: 11400000, guid: 74f83ee31d5534344b61b7f779718233, type: 2}
  - m_RefCount: 1
    m_Data: {fileID: 11400000, guid: 71282d57827e3734e81dd6aaa8a9fe7e, type: 2}
  - m_RefCount: 1
    m_Data: {fileID: 11400000, guid: ac34b24763ab40146addfc1e8760d31c, type: 2}
  - m_RefCount: 1
    m_Data: {fileID: 11400000, guid: 828a257b9f5052042a8e2d2d9f496df3, type: 2}
  - m_RefCount: 1
    m_Data: {fileID: 11400000, guid: 99bb382daf3f80d4c94c1dc3ef6a6ba4, type: 2}
  - m_RefCount: 1
    m_Data: {fileID: 11400000, guid: 36bc47a42def5bb41b1c69bb003cd6c0, type: 2}
  - m_RefCount: 1
    m_Data: {fileID: 11400000, guid: 88ec11d2a86888e489728d755a49d310, type: 2}
  - m_RefCount: 1
    m_Data: {fileID: 11400000, guid: 56dd62ee42cc8214fa9616531331f4e0, type: 2}
  - m_RefCount: 1
    m_Data: {fileID: 11400000, guid: 536d928965e5e6f4fb40ebe053a7f706, type: 2}
  - m_RefCount: 1
    m_Data: {fileID: 11400000, guid: 415fd91d57fb0124290391984c727c11, type: 2}
  - m_RefCount: 1
    m_Data: {fileID: 11400000, guid: fce5725abe352bb4eb0bcf0570c26047, type: 2}
  - m_RefCount: 1
    m_Data: {fileID: 11400000, guid: d719dc19d9d07b541b10a23c6db1309c, type: 2}
  - m_RefCount: 1
    m_Data: {fileID: 11400000, guid: 3b0d8621addcf5c42b474d8217bb34ff, type: 2}
  - m_RefCount: 1
    m_Data: {fileID: 11400000, guid: ec0ba0594c2fe5345a08939f7a77f409, type: 2}
  - m_RefCount: 1
    m_Data: {fileID: 11400000, guid: 878537fcac42eee4a8e20b0c45081864, type: 2}
  - m_RefCount: 1
    m_Data: {fileID: 11400000, guid: f52eaa3b1dcdc8a45b97a38cb9e6cd1e, type: 2}
  - m_RefCount: 1
    m_Data: {fileID: 11400000, guid: 268ab954df335a34a8ca9048ef15e465, type: 2}
  - m_RefCount: 1
    m_Data: {fileID: 11400000, guid: 69ca71186af03ea46bf3ae251e71475d, type: 2}
  - m_RefCount: 1
    m_Data: {fileID: 11400000, guid: c80e852111f38ab408d43dda4384ccc2, type: 2}
  - m_RefCount: 1
    m_Data: {fileID: 11400000, guid: 0a5eed0450073454c99f61364cb4894b, type: 2}
  - m_RefCount: 1
    m_Data: {fileID: 11400000, guid: 3cf1049b8c32aa042b36c4bb96a66e97, type: 2}
  - m_RefCount: 1
    m_Data: {fileID: 11400000, guid: 20fbbcd2243da7041afba3770cdb50af, type: 2}
  m_TileSpriteArray:
  - m_RefCount: 1
    m_Data: {fileID: -4874278423985981231, guid: fc584d329b77b9545b9c9c8bb829e553,
      type: 3}
  - m_RefCount: 1
    m_Data: {fileID: 2492004042214043949, guid: fc584d329b77b9545b9c9c8bb829e553,
      type: 3}
  - m_RefCount: 1
    m_Data: {fileID: 8471289998749917440, guid: fc584d329b77b9545b9c9c8bb829e553,
      type: 3}
  - m_RefCount: 1
    m_Data: {fileID: 397718093594370940, guid: fc584d329b77b9545b9c9c8bb829e553, type: 3}
  - m_RefCount: 1
    m_Data: {fileID: 4716054802376701170, guid: fc584d329b77b9545b9c9c8bb829e553,
      type: 3}
  - m_RefCount: 1
    m_Data: {fileID: -8620202154233844528, guid: fc584d329b77b9545b9c9c8bb829e553,
      type: 3}
  - m_RefCount: 1
    m_Data: {fileID: -7517053698926566003, guid: fc584d329b77b9545b9c9c8bb829e553,
      type: 3}
  - m_RefCount: 1
    m_Data: {fileID: 3020870990670601969, guid: fc584d329b77b9545b9c9c8bb829e553,
      type: 3}
  - m_RefCount: 1
    m_Data: {fileID: 1685935324672158413, guid: fc584d329b77b9545b9c9c8bb829e553,
      type: 3}
  - m_RefCount: 1
    m_Data: {fileID: 8022139226935704013, guid: fc584d329b77b9545b9c9c8bb829e553,
      type: 3}
  - m_RefCount: 1
    m_Data: {fileID: 5587568460378422633, guid: fc584d329b77b9545b9c9c8bb829e553,
      type: 3}
  - m_RefCount: 1
    m_Data: {fileID: 4987498479824627636, guid: fc584d329b77b9545b9c9c8bb829e553,
      type: 3}
  - m_RefCount: 1
    m_Data: {fileID: 6480251376165907240, guid: fc584d329b77b9545b9c9c8bb829e553,
      type: 3}
  - m_RefCount: 1
    m_Data: {fileID: -8795747966950415410, guid: fc584d329b77b9545b9c9c8bb829e553,
      type: 3}
  - m_RefCount: 1
    m_Data: {fileID: -6278356596846833739, guid: fc584d329b77b9545b9c9c8bb829e553,
      type: 3}
  - m_RefCount: 1
    m_Data: {fileID: -7850267199778421155, guid: fc584d329b77b9545b9c9c8bb829e553,
      type: 3}
  - m_RefCount: 1
    m_Data: {fileID: 8102182086558406705, guid: fc584d329b77b9545b9c9c8bb829e553,
      type: 3}
  - m_RefCount: 1
    m_Data: {fileID: 6918280329820428914, guid: fc584d329b77b9545b9c9c8bb829e553,
      type: 3}
  - m_RefCount: 1
    m_Data: {fileID: -3946849515626757761, guid: fc584d329b77b9545b9c9c8bb829e553,
      type: 3}
  - m_RefCount: 1
    m_Data: {fileID: -2698208165065819517, guid: fc584d329b77b9545b9c9c8bb829e553,
      type: 3}
  - m_RefCount: 1
    m_Data: {fileID: -5448943668070679941, guid: fc584d329b77b9545b9c9c8bb829e553,
      type: 3}
  - m_RefCount: 1
    m_Data: {fileID: -2572975058836569894, guid: fc584d329b77b9545b9c9c8bb829e553,
      type: 3}
  - m_RefCount: 1
    m_Data: {fileID: 5714336816974921154, guid: fc584d329b77b9545b9c9c8bb829e553,
      type: 3}
  - m_RefCount: 1
    m_Data: {fileID: 8704577166008928185, guid: fc584d329b77b9545b9c9c8bb829e553,
      type: 3}
  - m_RefCount: 1
    m_Data: {fileID: 313651839404696180, guid: fc584d329b77b9545b9c9c8bb829e553, type: 3}
  - m_RefCount: 1
    m_Data: {fileID: -1968872540364177098, guid: fc584d329b77b9545b9c9c8bb829e553,
      type: 3}
  - m_RefCount: 1
    m_Data: {fileID: -6401146908380638247, guid: fc584d329b77b9545b9c9c8bb829e553,
      type: 3}
  - m_RefCount: 1
    m_Data: {fileID: -3271834841568197018, guid: fc584d329b77b9545b9c9c8bb829e553,
      type: 3}
  - m_RefCount: 1
    m_Data: {fileID: -3097802831490656063, guid: fc584d329b77b9545b9c9c8bb829e553,
      type: 3}
  - m_RefCount: 1
    m_Data: {fileID: -8182233202742861025, guid: fc584d329b77b9545b9c9c8bb829e553,
      type: 3}
  - m_RefCount: 1
    m_Data: {fileID: -1730604581034617779, guid: fc584d329b77b9545b9c9c8bb829e553,
      type: 3}
  - m_RefCount: 1
    m_Data: {fileID: -1491035274662818768, guid: fc584d329b77b9545b9c9c8bb829e553,
      type: 3}
  - m_RefCount: 1
    m_Data: {fileID: -223391217462372170, guid: fc584d329b77b9545b9c9c8bb829e553,
      type: 3}
  - m_RefCount: 1
    m_Data: {fileID: 611065533247025525, guid: fc584d329b77b9545b9c9c8bb829e553, type: 3}
  - m_RefCount: 1
    m_Data: {fileID: 4356392584696007802, guid: fc584d329b77b9545b9c9c8bb829e553,
      type: 3}
  - m_RefCount: 1
    m_Data: {fileID: -8565927180804605051, guid: fc584d329b77b9545b9c9c8bb829e553,
      type: 3}
  - m_RefCount: 1
    m_Data: {fileID: -7788903373117692988, guid: fc584d329b77b9545b9c9c8bb829e553,
      type: 3}
  - m_RefCount: 1
    m_Data: {fileID: 1918823624152674874, guid: fc584d329b77b9545b9c9c8bb829e553,
      type: 3}
  - m_RefCount: 1
    m_Data: {fileID: 965125185638226396, guid: fc584d329b77b9545b9c9c8bb829e553, type: 3}
  - m_RefCount: 1
    m_Data: {fileID: 3631698497521491291, guid: fc584d329b77b9545b9c9c8bb829e553,
      type: 3}
  - m_RefCount: 1
    m_Data: {fileID: -1385159882611531606, guid: fc584d329b77b9545b9c9c8bb829e553,
      type: 3}
  - m_RefCount: 1
    m_Data: {fileID: 6882983052497979040, guid: fc584d329b77b9545b9c9c8bb829e553,
      type: 3}
  - m_RefCount: 1
    m_Data: {fileID: 5620700161029325194, guid: fc584d329b77b9545b9c9c8bb829e553,
      type: 3}
  - m_RefCount: 1
    m_Data: {fileID: 4373040517201769238, guid: fc584d329b77b9545b9c9c8bb829e553,
      type: 3}
  - m_RefCount: 1
    m_Data: {fileID: -6530495296205248430, guid: fc584d329b77b9545b9c9c8bb829e553,
      type: 3}
  - m_RefCount: 1
    m_Data: {fileID: 2248595124770686365, guid: fc584d329b77b9545b9c9c8bb829e553,
      type: 3}
  - m_RefCount: 1
    m_Data: {fileID: 59160463414151494, guid: fc584d329b77b9545b9c9c8bb829e553, type: 3}
  - m_RefCount: 1
    m_Data: {fileID: 7769017978755655707, guid: fc584d329b77b9545b9c9c8bb829e553,
      type: 3}
  - m_RefCount: 1
    m_Data: {fileID: 4651539075410445323, guid: fc584d329b77b9545b9c9c8bb829e553,
      type: 3}
  - m_RefCount: 1
    m_Data: {fileID: 2934133866269456315, guid: fc584d329b77b9545b9c9c8bb829e553,
      type: 3}
  - m_RefCount: 1
    m_Data: {fileID: 1034891850837087948, guid: fc584d329b77b9545b9c9c8bb829e553,
      type: 3}
  - m_RefCount: 1
    m_Data: {fileID: -4533138595082870998, guid: fc584d329b77b9545b9c9c8bb829e553,
      type: 3}
  - m_RefCount: 1
    m_Data: {fileID: 3702685922149842701, guid: fc584d329b77b9545b9c9c8bb829e553,
      type: 3}
  - m_RefCount: 1
    m_Data: {fileID: 510484679990689147, guid: fc584d329b77b9545b9c9c8bb829e553, type: 3}
  - m_RefCount: 1
    m_Data: {fileID: 3718556811081376101, guid: fc584d329b77b9545b9c9c8bb829e553,
      type: 3}
  - m_RefCount: 1
    m_Data: {fileID: -5869233480101591377, guid: fc584d329b77b9545b9c9c8bb829e553,
      type: 3}
  - m_RefCount: 1
    m_Data: {fileID: -2615569002567638836, guid: fc584d329b77b9545b9c9c8bb829e553,
      type: 3}
  - m_RefCount: 1
    m_Data: {fileID: 772467259971446145, guid: fc584d329b77b9545b9c9c8bb829e553, type: 3}
  - m_RefCount: 1
    m_Data: {fileID: -39983623799505075, guid: fc584d329b77b9545b9c9c8bb829e553, type: 3}
  - m_RefCount: 1
    m_Data: {fileID: 6999343348047764492, guid: fc584d329b77b9545b9c9c8bb829e553,
      type: 3}
  - m_RefCount: 1
    m_Data: {fileID: -6933530849576539303, guid: fc584d329b77b9545b9c9c8bb829e553,
      type: 3}
  - m_RefCount: 1
    m_Data: {fileID: -8849650766351124748, guid: fc584d329b77b9545b9c9c8bb829e553,
      type: 3}
  - m_RefCount: 1
    m_Data: {fileID: 5344191953466923600, guid: fc584d329b77b9545b9c9c8bb829e553,
      type: 3}
  - m_RefCount: 1
    m_Data: {fileID: 2110485755423906440, guid: fc584d329b77b9545b9c9c8bb829e553,
      type: 3}
  - m_RefCount: 1
    m_Data: {fileID: 611278257802682203, guid: fc584d329b77b9545b9c9c8bb829e553, type: 3}
  - m_RefCount: 1
    m_Data: {fileID: 8568688612705805593, guid: fc584d329b77b9545b9c9c8bb829e553,
      type: 3}
  - m_RefCount: 1
    m_Data: {fileID: -4293226751833479062, guid: fc584d329b77b9545b9c9c8bb829e553,
      type: 3}
  - m_RefCount: 1
    m_Data: {fileID: -531863552409210314, guid: fc584d329b77b9545b9c9c8bb829e553,
      type: 3}
  - m_RefCount: 1
    m_Data: {fileID: 3220740477721170248, guid: fc584d329b77b9545b9c9c8bb829e553,
      type: 3}
  - m_RefCount: 1
    m_Data: {fileID: -8232957222563989430, guid: fc584d329b77b9545b9c9c8bb829e553,
      type: 3}
  - m_RefCount: 1
    m_Data: {fileID: 3581976363580684779, guid: fc584d329b77b9545b9c9c8bb829e553,
      type: 3}
  - m_RefCount: 1
    m_Data: {fileID: 8137121077619138534, guid: fc584d329b77b9545b9c9c8bb829e553,
      type: 3}
  - m_RefCount: 1
    m_Data: {fileID: -4450007684230045513, guid: fc584d329b77b9545b9c9c8bb829e553,
      type: 3}
  - m_RefCount: 1
    m_Data: {fileID: 368488948622713827, guid: fc584d329b77b9545b9c9c8bb829e553, type: 3}
  - m_RefCount: 1
    m_Data: {fileID: -1652666043038260038, guid: fc584d329b77b9545b9c9c8bb829e553,
      type: 3}
  - m_RefCount: 1
    m_Data: {fileID: -3581127029532586042, guid: fc584d329b77b9545b9c9c8bb829e553,
      type: 3}
  - m_RefCount: 1
    m_Data: {fileID: -1130122408560378385, guid: fc584d329b77b9545b9c9c8bb829e553,
      type: 3}
  - m_RefCount: 1
    m_Data: {fileID: 1383883272258276261, guid: fc584d329b77b9545b9c9c8bb829e553,
      type: 3}
  - m_RefCount: 1
    m_Data: {fileID: -5125620877619029284, guid: fc584d329b77b9545b9c9c8bb829e553,
      type: 3}
  - m_RefCount: 1
    m_Data: {fileID: -7056944154279210060, guid: fc584d329b77b9545b9c9c8bb829e553,
      type: 3}
  - m_RefCount: 1
    m_Data: {fileID: -9178860142635623461, guid: fc584d329b77b9545b9c9c8bb829e553,
      type: 3}
  - m_RefCount: 1
    m_Data: {fileID: -5377211804188701585, guid: fc584d329b77b9545b9c9c8bb829e553,
      type: 3}
  - m_RefCount: 1
    m_Data: {fileID: -3332869691567337552, guid: fc584d329b77b9545b9c9c8bb829e553,
      type: 3}
  - m_RefCount: 1
    m_Data: {fileID: -7839824748867068813, guid: fc584d329b77b9545b9c9c8bb829e553,
      type: 3}
  - m_RefCount: 1
    m_Data: {fileID: 4860222720029096845, guid: fc584d329b77b9545b9c9c8bb829e553,
      type: 3}
  - m_RefCount: 1
    m_Data: {fileID: -8908544382962373700, guid: fc584d329b77b9545b9c9c8bb829e553,
      type: 3}
  - m_RefCount: 1
    m_Data: {fileID: 2534797647697017659, guid: fc584d329b77b9545b9c9c8bb829e553,
      type: 3}
  - m_RefCount: 1
    m_Data: {fileID: -701145450088738326, guid: fc584d329b77b9545b9c9c8bb829e553,
      type: 3}
  - m_RefCount: 1
    m_Data: {fileID: -7280874316543817821, guid: fc584d329b77b9545b9c9c8bb829e553,
      type: 3}
  - m_RefCount: 1
    m_Data: {fileID: 7816257180041521445, guid: fc584d329b77b9545b9c9c8bb829e553,
      type: 3}
  - m_RefCount: 1
    m_Data: {fileID: 4218957088357342075, guid: fc584d329b77b9545b9c9c8bb829e553,
      type: 3}
  - m_RefCount: 1
    m_Data: {fileID: -1647121858502193189, guid: fc584d329b77b9545b9c9c8bb829e553,
      type: 3}
  - m_RefCount: 1
    m_Data: {fileID: 3045001923454373135, guid: fc584d329b77b9545b9c9c8bb829e553,
      type: 3}
  - m_RefCount: 1
    m_Data: {fileID: 6046465229504819404, guid: fc584d329b77b9545b9c9c8bb829e553,
      type: 3}
  - m_RefCount: 1
    m_Data: {fileID: 146925484895311433, guid: fc584d329b77b9545b9c9c8bb829e553, type: 3}
  - m_RefCount: 1
    m_Data: {fileID: 3895720443503238059, guid: fc584d329b77b9545b9c9c8bb829e553,
      type: 3}
  - m_RefCount: 1
    m_Data: {fileID: -9019234469899804686, guid: fc584d329b77b9545b9c9c8bb829e553,
      type: 3}
  - m_RefCount: 1
    m_Data: {fileID: 3666724916130892037, guid: fc584d329b77b9545b9c9c8bb829e553,
      type: 3}
  - m_RefCount: 1
    m_Data: {fileID: 4557074923728586563, guid: fc584d329b77b9545b9c9c8bb829e553,
      type: 3}
  - m_RefCount: 1
    m_Data: {fileID: -4531858634233595940, guid: fc584d329b77b9545b9c9c8bb829e553,
      type: 3}
  - m_RefCount: 1
    m_Data: {fileID: -9185552814043747542, guid: fc584d329b77b9545b9c9c8bb829e553,
      type: 3}
  - m_RefCount: 1
    m_Data: {fileID: -8204820221692255543, guid: fc584d329b77b9545b9c9c8bb829e553,
      type: 3}
  - m_RefCount: 1
    m_Data: {fileID: -6233458931719022677, guid: fc584d329b77b9545b9c9c8bb829e553,
      type: 3}
  - m_RefCount: 1
    m_Data: {fileID: 1154340479819735195, guid: fc584d329b77b9545b9c9c8bb829e553,
      type: 3}
  - m_RefCount: 1
    m_Data: {fileID: 4778045797586685428, guid: fc584d329b77b9545b9c9c8bb829e553,
      type: 3}
  - m_RefCount: 1
    m_Data: {fileID: 6636356914981313421, guid: fc584d329b77b9545b9c9c8bb829e553,
      type: 3}
  - m_RefCount: 1
    m_Data: {fileID: 1686551188809007541, guid: fc584d329b77b9545b9c9c8bb829e553,
      type: 3}
  - m_RefCount: 1
    m_Data: {fileID: -5930776587842900371, guid: fc584d329b77b9545b9c9c8bb829e553,
      type: 3}
  - m_RefCount: 1
    m_Data: {fileID: -130104546997218819, guid: fc584d329b77b9545b9c9c8bb829e553,
      type: 3}
  - m_RefCount: 1
    m_Data: {fileID: -557614441817400054, guid: fc584d329b77b9545b9c9c8bb829e553,
      type: 3}
  - m_RefCount: 1
    m_Data: {fileID: -4356087948441045522, guid: fc584d329b77b9545b9c9c8bb829e553,
      type: 3}
  - m_RefCount: 1
    m_Data: {fileID: 2379953761323448013, guid: fc584d329b77b9545b9c9c8bb829e553,
      type: 3}
  - m_RefCount: 1
    m_Data: {fileID: -8392802036319243359, guid: fc584d329b77b9545b9c9c8bb829e553,
      type: 3}
  - m_RefCount: 1
    m_Data: {fileID: 3768474000973419263, guid: fc584d329b77b9545b9c9c8bb829e553,
      type: 3}
  - m_RefCount: 1
    m_Data: {fileID: -7876864015116417812, guid: fc584d329b77b9545b9c9c8bb829e553,
      type: 3}
  - m_RefCount: 1
    m_Data: {fileID: 2460501278191033764, guid: fc584d329b77b9545b9c9c8bb829e553,
      type: 3}
  - m_RefCount: 1
    m_Data: {fileID: 6516917985212256981, guid: fc584d329b77b9545b9c9c8bb829e553,
      type: 3}
  - m_RefCount: 1
    m_Data: {fileID: 2870588770018888475, guid: fc584d329b77b9545b9c9c8bb829e553,
      type: 3}
  - m_RefCount: 1
    m_Data: {fileID: 6172093022122347682, guid: fc584d329b77b9545b9c9c8bb829e553,
      type: 3}
  - m_RefCount: 1
    m_Data: {fileID: -4745629342412378363, guid: fc584d329b77b9545b9c9c8bb829e553,
      type: 3}
  - m_RefCount: 1
    m_Data: {fileID: -796906297672391504, guid: fc584d329b77b9545b9c9c8bb829e553,
      type: 3}
  - m_RefCount: 1
    m_Data: {fileID: 517537040645658821, guid: fc584d329b77b9545b9c9c8bb829e553, type: 3}
  - m_RefCount: 1
    m_Data: {fileID: 2348904716778239224, guid: fc584d329b77b9545b9c9c8bb829e553,
      type: 3}
  - m_RefCount: 1
    m_Data: {fileID: 6364211675350883068, guid: fc584d329b77b9545b9c9c8bb829e553,
      type: 3}
  - m_RefCount: 1
    m_Data: {fileID: -4506956802181919417, guid: fc584d329b77b9545b9c9c8bb829e553,
      type: 3}
  - m_RefCount: 1
    m_Data: {fileID: -8554552240816166350, guid: fc584d329b77b9545b9c9c8bb829e553,
      type: 3}
  - m_RefCount: 1
    m_Data: {fileID: 5155531445672774593, guid: fc584d329b77b9545b9c9c8bb829e553,
      type: 3}
  - m_RefCount: 1
    m_Data: {fileID: -8283946481429751769, guid: fc584d329b77b9545b9c9c8bb829e553,
      type: 3}
  - m_RefCount: 1
    m_Data: {fileID: 1437503401646794464, guid: fc584d329b77b9545b9c9c8bb829e553,
      type: 3}
  - m_RefCount: 1
    m_Data: {fileID: -8608529027667364052, guid: fc584d329b77b9545b9c9c8bb829e553,
      type: 3}
  - m_RefCount: 1
    m_Data: {fileID: -984624906782596688, guid: fc584d329b77b9545b9c9c8bb829e553,
      type: 3}
  - m_RefCount: 1
    m_Data: {fileID: -3935483887006374238, guid: fc584d329b77b9545b9c9c8bb829e553,
      type: 3}
  - m_RefCount: 1
    m_Data: {fileID: 9178892520020476994, guid: fc584d329b77b9545b9c9c8bb829e553,
      type: 3}
  - m_RefCount: 1
    m_Data: {fileID: -144014455013166516, guid: fc584d329b77b9545b9c9c8bb829e553,
      type: 3}
  - m_RefCount: 1
    m_Data: {fileID: -3253207453764529203, guid: fc584d329b77b9545b9c9c8bb829e553,
      type: 3}
  - m_RefCount: 1
    m_Data: {fileID: -7168242779200424501, guid: fc584d329b77b9545b9c9c8bb829e553,
      type: 3}
  - m_RefCount: 1
    m_Data: {fileID: -8219376919472097953, guid: fc584d329b77b9545b9c9c8bb829e553,
      type: 3}
  - m_RefCount: 1
    m_Data: {fileID: 5344690722283713150, guid: fc584d329b77b9545b9c9c8bb829e553,
      type: 3}
  - m_RefCount: 1
    m_Data: {fileID: 5394353238224683576, guid: fc584d329b77b9545b9c9c8bb829e553,
      type: 3}
  - m_RefCount: 1
    m_Data: {fileID: 8028931387866111178, guid: fc584d329b77b9545b9c9c8bb829e553,
      type: 3}
  - m_RefCount: 1
    m_Data: {fileID: 2961677793244026094, guid: fc584d329b77b9545b9c9c8bb829e553,
      type: 3}
  - m_RefCount: 1
    m_Data: {fileID: -2580880771318319752, guid: fc584d329b77b9545b9c9c8bb829e553,
      type: 3}
  - m_RefCount: 1
    m_Data: {fileID: -2266960901078078804, guid: fc584d329b77b9545b9c9c8bb829e553,
      type: 3}
  - m_RefCount: 1
    m_Data: {fileID: 4320056378629417345, guid: fc584d329b77b9545b9c9c8bb829e553,
      type: 3}
  m_TileMatrixArray:
  - m_RefCount: 144
    m_Data:
      e00: 1
      e01: 0
      e02: 0
      e03: 0
      e10: 0
      e11: 1
      e12: 0
      e13: 0
      e20: 0
      e21: 0
      e22: 1
      e23: 0
      e30: 0
      e31: 0
      e32: 0
      e33: 1
  m_TileColorArray:
  - m_RefCount: 144
    m_Data: {r: 1, g: 1, b: 1, a: 1}
  m_TileObjectToInstantiateArray: []
  m_AnimationFrameRate: 1
  m_Color: {r: 1, g: 1, b: 1, a: 1}
  m_Origin: {x: -1, y: -10, z: 0}
  m_Size: {x: 22, y: 11, z: 1}
  m_TileAnchor: {x: 0.5, y: 0.5, z: 0}
  m_TileOrientation: 0
  m_TileOrientationMatrix:
    e00: 1
    e01: 0
    e02: 0
    e03: 0
    e10: 0
    e11: 1
    e12: 0
    e13: 0
    e20: 0
    e21: 0
    e22: 1
    e23: 0
    e30: 0
    e31: 0
    e32: 0
    e33: 1
--- !u!483693784 &7194736155556276112
TilemapRenderer:
  m_ObjectHideFlags: 0
  m_CorrespondingSourceObject: {fileID: 0}
  m_PrefabInstance: {fileID: 0}
  m_PrefabAsset: {fileID: 0}
  m_GameObject: {fileID: 5131454316207203684}
  m_Enabled: 0
  m_CastShadows: 0
  m_ReceiveShadows: 0
  m_DynamicOccludee: 0
  m_MotionVectors: 1
  m_LightProbeUsage: 0
  m_ReflectionProbeUsage: 0
  m_RayTracingMode: 0
  m_RenderingLayerMask: 1
  m_RendererPriority: 0
  m_Materials:
  - {fileID: 10754, guid: 0000000000000000f000000000000000, type: 0}
  m_StaticBatchInfo:
    firstSubMesh: 0
    subMeshCount: 0
  m_StaticBatchRoot: {fileID: 0}
  m_ProbeAnchor: {fileID: 0}
  m_LightProbeVolumeOverride: {fileID: 0}
  m_ScaleInLightmap: 1
  m_ReceiveGI: 1
  m_PreserveUVs: 0
  m_IgnoreNormalsForChartDetection: 0
  m_ImportantGI: 0
  m_StitchLightmapSeams: 1
  m_SelectedEditorRenderState: 0
  m_MinimumChartSize: 4
  m_AutoUVMaxDistance: 0.5
  m_AutoUVMaxAngle: 89
  m_LightmapParameters: {fileID: 0}
  m_SortingLayerID: 0
  m_SortingLayer: 0
  m_SortingOrder: 0
  m_ChunkSize: {x: 32, y: 32, z: 32}
  m_ChunkCullingBounds: {x: 0, y: 0, z: 0}
  m_MaxChunkCount: 16
  m_MaxFrameAge: 16
  m_SortOrder: 0
  m_Mode: 0
  m_DetectChunkCullingBounds: 0
  m_MaskInteraction: 0
--- !u!1 &5686490350069554756
GameObject:
  m_ObjectHideFlags: 0
  m_CorrespondingSourceObject: {fileID: 0}
  m_PrefabInstance: {fileID: 0}
  m_PrefabAsset: {fileID: 0}
  serializedVersion: 6
  m_Component:
  - component: {fileID: 792421626492247285}
  - component: {fileID: 5357527055418298953}
  m_Layer: 31
  m_Name: PaletaDelTerreno
  m_TagString: Untagged
  m_Icon: {fileID: 0}
  m_NavMeshLayer: 0
  m_StaticEditorFlags: 0
  m_IsActive: 1
--- !u!4 &792421626492247285
Transform:
  m_ObjectHideFlags: 0
  m_CorrespondingSourceObject: {fileID: 0}
  m_PrefabInstance: {fileID: 0}
  m_PrefabAsset: {fileID: 0}
  m_GameObject: {fileID: 5686490350069554756}
  m_LocalRotation: {x: 0, y: 0, z: 0, w: 1}
  m_LocalPosition: {x: 0, y: 0, z: 0}
  m_LocalScale: {x: 1, y: 1, z: 1}
  m_Children:
  - {fileID: 6224721577263510804}
  m_Father: {fileID: 0}
  m_RootOrder: 0
  m_LocalEulerAnglesHint: {x: 0, y: 0, z: 0}
--- !u!156049354 &5357527055418298953
Grid:
  m_ObjectHideFlags: 0
  m_CorrespondingSourceObject: {fileID: 0}
  m_PrefabInstance: {fileID: 0}
  m_PrefabAsset: {fileID: 0}
  m_GameObject: {fileID: 5686490350069554756}
  m_Enabled: 1
  m_CellSize: {x: 1, y: 1, z: 0}
  m_CellGap: {x: 0, y: 0, z: 0}
  m_CellLayout: 0
  m_CellSwizzle: 0
--- !u!114 &727820817389472543
MonoBehaviour:
  m_ObjectHideFlags: 0
  m_CorrespondingSourceObject: {fileID: 0}
  m_PrefabInstance: {fileID: 0}
  m_PrefabAsset: {fileID: 0}
  m_GameObject: {fileID: 0}
  m_Enabled: 1
  m_EditorHideFlags: 0
  m_Script: {fileID: 12395, guid: 0000000000000000e000000000000000, type: 0}
  m_Name: Palette Settings
  m_EditorClassIdentifier: 
  cellSizing: 0
